[
    {
        "name": "Gum",
        "cost": "$1.67",
        "retail": "2.29",
        "avail": false
    },
    {
        "name": "Sour Keys",
        "cost": "$0.25",
        "retail": "0.25",
        "avail": true
    },
    {
        "name": "Lolipop",
        "cost": "$1.00",
        "retail": "1.25",
        "avail": true
    }
]
